Item Code,Disabled
ERP-I033,0
ERP-I078,0
ERP-I007,0
ERP-331,0
ERP-I006,0
ERP-I080,0
ERP-V010,0
ERP-V014,0
ERP-V018,0
Corn Frozen,0
ERP-101,0
ERP-102,0
ERP-103,0
ERP-105,0
ERP-108,0
ERP-117,0
ERP-118,0
ERP-125,0
ERP-126,0
ERP-127,0
ERP-128,0
ERP-129,0
ERP-130,0
ERP-133,0
ERP-135,0
ERP-138,0
ERP-142,0
ERP-166,0
ERP-169,0
ERP-171,0
ERP-175,0
ERP-179,0
ERP-181,0
ERP-197,0
ERP-202,0
ERP-203,0
ERP-205,0
ERP-209,0
ERP-212,0
ERP-225,0
ERP-229,0
ERP-230,0
ERP-231,0
ERP-240,0
ERP-241,0
ERP-244,0
ERP-249,0
ERP-250,0
ERP-252,0
ERP-253,0
ERP-255,0
ERP-261,0
ERP-267,0
ERP-276,0
ERP-284,0
ERP-285,0
ERP-288,0
ERP-290,0
ERP-292,0
ERP-294,0
ERP-296,0
ERP-297,0
ERP-305,0
ERP-309,0
ERP-310,0
ERP-311,0
ERP-314,0
ERP-318,0
ERP-319,0
ERP-320,0
ERP-322,0
ERP-323,0
ERP-324,0
ERP-325,0
ERP-328,0
ERP-330,0
ERP-333,0
ERP-334,0
ERP-340,0
ERP-366,0
ERP-369,0
ERP-370,0
ERP-372,0
ERP-376,0
ERP-378,0
ERP-I13,0
Erp-379,0
ERP-102A,0
ERP-C001,0
ERP-C003,0
ERP-C007,0
ERP-I003,0
ERP-I005,0
ERP-I014,0
ERP-I015,0
ERP-I016,0
ERP-I017,0
ERP-I018,0
ERP-I021,0
ERP-I022,0
