ID,Item Code,Price List,Rate,UOM,Buying,Supplier
,ERP-112,Buying,16.75,Pkt,1,Barakat Vegetables & Fruits Co. (LLC)
,ERP-113,Buying,4.75,Kg,1,Barakat Vegetables & Fruits Co. (LLC)
,ERP-114,Buying,12.5,Pkt,1,Barakat Vegetables & Fruits Co. (LLC)
,ERP-137,Buying,5.75,Pkt,1,Barakat Vegetables & Fruits Co. (LLC)
,ERP-138,Buying,1.75,Kg,1,Barakat Vegetables & Fruits Co. (LLC)
,ERP-139,Buying,9.25,Kg,1,Barakat Vegetables & Fruits Co. (LLC)
,ERP-140,Buying,29,Kg,1,Barakat Vegetables & Fruits Co. (LLC)
,ERP-141,Buying,8,pack,1,Barakat Vegetables & Fruits Co. (LLC)
,ERP-150,Buying,5.75,Kg,1,Barakat Vegetables & Fruits Co. (LLC)
,ERP-151,Buying,4.9,Kg,1,Barakat Vegetables & Fruits Co. (LLC)
,ERP-152,Buying,25,Kg,1,Barakat Vegetables & Fruits Co. (LLC)
,ERP-153,Buying,5.25,Pkt,1,Barakat Vegetables & Fruits Co. (LLC)
,ERP-156,Buying,22.5,Kg,1,Barakat Vegetables & Fruits Co. (LLC)
,ERP-157,Buying,7.75,Kg,1,Barakat Vegetables & Fruits Co. (LLC)
,ERP-167,Buying,32.5,Kg,1,Barakat Vegetables & Fruits Co. (LLC)
,ERP-168,Buying,4.85,Kg,1,Barakat Vegetables & Fruits Co. (LLC)
,ERP-173,Buying,12.5,Kg,1,Barakat Vegetables & Fruits Co. (LLC)
,ERP-174,Buying,5.25,Kg,1,Barakat Vegetables & Fruits Co. (LLC)
,ERP-190,Buying,4.85,Kg,1,Barakat Vegetables & Fruits Co. (LLC)
,ERP-191,Buying,3.75,Kg,1,Barakat Vegetables & Fruits Co. (LLC)
,ERP-198,Buying,65,Kg,1,Barakat Vegetables & Fruits Co. (LLC)
,ERP-201,Buying,2.75,Kg,1,Barakat Vegetables & Fruits Co. (LLC)
,ERP-206,Buying,16,Kg,1,Barakat Vegetables & Fruits Co. (LLC)
,ERP-207,Buying,16,Kg,1,Barakat Vegetables & Fruits Co. (LLC)
,ERP-212,Buying,4,Kg,1,Barakat Vegetables & Fruits Co. (LLC)
,ERP-286,Buying,6.75,Kg,1,Barakat Vegetables & Fruits Co. (LLC)
,ERP-289,Buying,3.65,Kg,1,Barakat Vegetables & Fruits Co. (LLC)
,ERP-291,Buying,15,Kg,1,Barakat Vegetables & Fruits Co. (LLC)
,ERP-292,Buying,26.5,Kg,1,Barakat Vegetables & Fruits Co. (LLC)
,ERP-293,Buying,37.5,Kg,1,Barakat Vegetables & Fruits Co. (LLC)
,ERP-335,Buying,4.5,Kg,1,Barakat Vegetables & Fruits Co. (LLC)
,ERP-336,Buying,2,Kg,1,Barakat Vegetables & Fruits Co. (LLC)
,ERP-I011,Buying,40,Kg,1,Barakat Vegetables & Fruits Co. (LLC)
,ERP-V002,Buying,65,Kg,1,Barakat Vegetables & Fruits Co. (LLC)
,ERP-174,Buying,5.25,Kg,1,Barakat Vegetables & Fruits Co. (LLC)
,ERP-V005,Buying,18.5,Kg,1,Barakat Vegetables & Fruits Co. (LLC)
,ERP-V007,Buying,2.9,Kg,1,Barakat Vegetables & Fruits Co. (LLC)
,ERP-V008,Buying,6.95,Kg,1,Barakat Vegetables & Fruits Co. (LLC)
,ERP-V014,Buying,4.25,Kg,1,Barakat Vegetables & Fruits Co. (LLC)
,ERP-V015,Buying,28.5,Kg,1,Barakat Vegetables & Fruits Co. (LLC)
,ERP-V016,Buying,5.5,Kg,1,Barakat Vegetables & Fruits Co. (LLC)
,ERP-V019,Buying,1.75,Kg,1,Barakat Vegetables & Fruits Co. (LLC)
,ERP-V020,Buying,4.25,Kg,1,Barakat Vegetables & Fruits Co. (LLC)
,ERP-V021,Buying,4.85,Kg,1,Barakat Vegetables & Fruits Co. (LLC)
,ERP-V022,Buying,44,Kg,1,Barakat Vegetables & Fruits Co. (LLC)
,ERP-V023,Buying,3.65,Kg,1,Barakat Vegetables & Fruits Co. (LLC)
,ERP-212,Buying,4,Kg,1,Barakat Vegetables & Fruits Co. (LLC)
,ERP-V025,Buying,4.5,Pkt,1,Barakat Vegetables & Fruits Co. (LLC)
,ERP-VO27,Buying,2.9,Kg,1,Barakat Vegetables & Fruits Co. (LLC)
