ID,Series,Employee,Leave Type,From Date,To Date,Total Leaves Allocated,New Leaves Allocated
,HR-LAL-.YYYY.-,HR-EMP-00001,Sick Leave,1/1/2021,12/31/2021,15,15
,HR-LAL-.YYYY.-,HR-EMP-00002,Sick Leave,1/1/2021,12/31/2021,15,15
,HR-LAL-.YYYY.-,HR-EMP-00003,Sick Leave,1/1/2021,12/31/2021,15,15
,HR-LAL-.YYYY.-,HR-EMP-00004,Sick Leave,1/1/2021,12/31/2021,15,15
,HR-LAL-.YYYY.-,HR-EMP-00005,Sick Leave,1/1/2021,12/31/2021,15,15
,HR-LAL-.YYYY.-,HR-EMP-00006,Sick Leave,1/1/2021,12/31/2021,15,15
,HR-LAL-.YYYY.-,HR-EMP-00007,Sick Leave,1/1/2021,12/31/2021,15,15
,HR-LAL-.YYYY.-,HR-EMP-00008,Sick Leave,1/1/2021,12/31/2021,15,15
,HR-LAL-.YYYY.-,HR-EMP-00009,Sick Leave,1/1/2021,12/31/2021,15,15
,HR-LAL-.YYYY.-,HR-EMP-00010,Sick Leave,1/1/2021,12/31/2021,15,15
,HR-LAL-.YYYY.-,HR-EMP-00011,Sick Leave,1/1/2021,12/31/2021,15,15
,HR-LAL-.YYYY.-,HR-EMP-00012,Sick Leave,1/1/2021,12/31/2021,15,15
,HR-LAL-.YYYY.-,HR-EMP-00013,Sick Leave,1/1/2021,12/31/2021,15,15
,HR-LAL-.YYYY.-,HR-EMP-00014,Sick Leave,1/1/2021,12/31/2021,15,15
,HR-LAL-.YYYY.-,HR-EMP-00015,Sick Leave,1/1/2021,12/31/2021,15,15
,HR-LAL-.YYYY.-,HR-EMP-00016,Sick Leave,1/1/2021,12/31/2021,15,15
,HR-LAL-.YYYY.-,HR-EMP-00017,Sick Leave,1/1/2021,12/31/2021,15,15
,HR-LAL-.YYYY.-,HR-EMP-00018,Sick Leave,1/1/2021,12/31/2021,15,15
,HR-LAL-.YYYY.-,HR-EMP-00019,Sick Leave,1/1/2021,12/31/2021,15,15
,HR-LAL-.YYYY.-,HR-EMP-00020,Sick Leave,1/1/2021,12/31/2021,15,15
,HR-LAL-.YYYY.-,HR-EMP-00021,Sick Leave,1/1/2021,12/31/2021,15,15
,HR-LAL-.YYYY.-,HR-EMP-00022,Sick Leave,1/1/2021,12/31/2021,15,15
,HR-LAL-.YYYY.-,HR-EMP-00023,Sick Leave,1/1/2021,12/31/2021,15,15
,HR-LAL-.YYYY.-,HR-EMP-00024,Sick Leave,1/1/2021,12/31/2021,15,15
,HR-LAL-.YYYY.-,HR-EMP-00025,Sick Leave,1/1/2021,12/31/2021,15,15
,HR-LAL-.YYYY.-,HR-EMP-00026,Sick Leave,1/1/2021,12/31/2021,15,15
,HR-LAL-.YYYY.-,HR-EMP-00027,Sick Leave,1/1/2021,12/31/2021,15,15
,HR-LAL-.YYYY.-,HR-EMP-00028,Sick Leave,1/1/2021,12/31/2021,15,15
,HR-LAL-.YYYY.-,HR-EMP-00029,Sick Leave,1/1/2021,12/31/2021,15,15
,HR-LAL-.YYYY.-,HR-EMP-00030,Sick Leave,1/1/2021,12/31/2021,15,15
,HR-LAL-.YYYY.-,HR-EMP-00031,Sick Leave,1/1/2021,12/31/2021,15,15
,HR-LAL-.YYYY.-,HR-EMP-00032,Sick Leave,1/1/2021,12/31/2021,15,15
,HR-LAL-.YYYY.-,HR-EMP-00033,Sick Leave,1/1/2021,12/31/2021,15,15
,HR-LAL-.YYYY.-,HR-EMP-00034,Sick Leave,1/1/2021,12/31/2021,15,15
,HR-LAL-.YYYY.-,HR-EMP-00035,Sick Leave,1/1/2021,12/31/2021,15,15
,HR-LAL-.YYYY.-,HR-EMP-00036,Sick Leave,1/1/2021,12/31/2021,15,15
,HR-LAL-.YYYY.-,HR-EMP-00037,Sick Leave,1/1/2021,12/31/2021,15,15
,HR-LAL-.YYYY.-,HR-EMP-00038,Sick Leave,1/1/2021,12/31/2021,15,15
,HR-LAL-.YYYY.-,HR-EMP-00039,Sick Leave,1/1/2021,12/31/2021,15,15
,HR-LAL-.YYYY.-,HR-EMP-00040,Sick Leave,1/1/2021,12/31/2021,15,15
,HR-LAL-.YYYY.-,HR-EMP-00041,Sick Leave,1/1/2021,12/31/2021,15,15
,HR-LAL-.YYYY.-,HR-EMP-00042,Sick Leave,1/1/2021,12/31/2021,15,15
,HR-LAL-.YYYY.-,HR-EMP-00043,Sick Leave,1/1/2021,12/31/2021,15,15
,HR-LAL-.YYYY.-,HR-EMP-00044,Sick Leave,1/1/2021,12/31/2021,15,15
,HR-LAL-.YYYY.-,HR-EMP-00045,Sick Leave,1/1/2021,12/31/2021,15,15
,HR-LAL-.YYYY.-,HR-EMP-00046,Sick Leave,1/1/2021,12/31/2021,15,15
,HR-LAL-.YYYY.-,HR-EMP-00047,Sick Leave,1/1/2021,12/31/2021,15,15
,HR-LAL-.YYYY.-,HR-EMP-00048,Sick Leave,1/1/2021,12/31/2021,15,15
,HR-LAL-.YYYY.-,HR-EMP-00049,Sick Leave,1/1/2021,12/31/2021,15,15
,HR-LAL-.YYYY.-,HR-EMP-00050,Sick Leave,1/1/2021,12/31/2021,15,15
,HR-LAL-.YYYY.-,HR-EMP-00051,Sick Leave,1/1/2021,12/31/2021,15,15
,HR-LAL-.YYYY.-,HR-EMP-00052,Sick Leave,1/1/2021,12/31/2021,15,15
,HR-LAL-.YYYY.-,HR-EMP-00053,Sick Leave,1/1/2021,12/31/2021,15,15
,HR-LAL-.YYYY.-,HR-EMP-00054,Sick Leave,1/1/2021,12/31/2021,15,15
,HR-LAL-.YYYY.-,HR-EMP-00055,Sick Leave,1/1/2021,12/31/2021,15,15
,HR-LAL-.YYYY.-,HR-EMP-00056,Sick Leave,1/1/2021,12/31/2021,15,15
,HR-LAL-.YYYY.-,HR-EMP-00057,Sick Leave,1/1/2021,12/31/2021,15,15
,HR-LAL-.YYYY.-,HR-EMP-00058,Sick Leave,1/1/2021,12/31/2021,15,15
,HR-LAL-.YYYY.-,HR-EMP-00059,Sick Leave,1/1/2021,12/31/2021,15,15
,HR-LAL-.YYYY.-,HR-EMP-00060,Sick Leave,1/1/2021,12/31/2021,15,15
,HR-LAL-.YYYY.-,HR-EMP-00061,Sick Leave,1/1/2021,12/31/2021,15,15
,HR-LAL-.YYYY.-,HR-EMP-00062,Sick Leave,1/1/2021,12/31/2021,15,15
,HR-LAL-.YYYY.-,HR-EMP-00063,Sick Leave,1/1/2021,12/31/2021,15,15
,HR-LAL-.YYYY.-,HR-EMP-00064,Sick Leave,1/1/2021,12/31/2021,15,15
,HR-LAL-.YYYY.-,HR-EMP-00065,Sick Leave,1/1/2021,12/31/2021,15,15
,HR-LAL-.YYYY.-,HR-EMP-00066,Sick Leave,1/1/2021,12/31/2021,15,15
,HR-LAL-.YYYY.-,HR-EMP-00067,Sick Leave,1/1/2021,12/31/2021,15,15
,HR-LAL-.YYYY.-,HR-EMP-00068,Sick Leave,1/1/2021,12/31/2021,15,15
,HR-LAL-.YYYY.-,HR-EMP-00069,Sick Leave,1/1/2021,12/31/2021,15,15
,HR-LAL-.YYYY.-,HR-EMP-00070,Sick Leave,1/1/2021,12/31/2021,15,15
,HR-LAL-.YYYY.-,HR-EMP-00071,Sick Leave,1/1/2021,12/31/2021,15,15
,HR-LAL-.YYYY.-,HR-EMP-00072,Sick Leave,1/1/2021,12/31/2021,15,15
,HR-LAL-.YYYY.-,HR-EMP-00073,Sick Leave,1/1/2021,12/31/2021,15,15
,HR-LAL-.YYYY.-,HR-EMP-00074,Sick Leave,1/1/2021,12/31/2021,15,15
,HR-LAL-.YYYY.-,HR-EMP-00075,Sick Leave,1/1/2021,12/31/2021,15,15
,HR-LAL-.YYYY.-,HR-EMP-00076,Sick Leave,1/1/2021,12/31/2021,15,15
,HR-LAL-.YYYY.-,HR-EMP-00077,Sick Leave,1/1/2021,12/31/2021,15,15
,HR-LAL-.YYYY.-,HR-EMP-00078,Sick Leave,1/1/2021,12/31/2021,15,15
,HR-LAL-.YYYY.-,HR-EMP-00079,Sick Leave,1/1/2021,12/31/2021,15,15
,HR-LAL-.YYYY.-,HR-EMP-00080,Sick Leave,1/1/2021,12/31/2021,15,15
,HR-LAL-.YYYY.-,HR-EMP-00081,Sick Leave,1/1/2021,12/31/2021,15,15
,HR-LAL-.YYYY.-,HR-EMP-00083,Sick Leave,1/1/2021,12/31/2021,15,15
,HR-LAL-.YYYY.-,HR-EMP-00084,Sick Leave,1/1/2021,12/31/2021,15,15
,HR-LAL-.YYYY.-,HR-EMP-00085,Sick Leave,1/1/2021,12/31/2021,15,15
,HR-LAL-.YYYY.-,HR-EMP-00086,Sick Leave,1/1/2021,12/31/2021,15,15
,HR-LAL-.YYYY.-,HR-EMP-00087,Sick Leave,1/1/2021,12/31/2021,15,15
,HR-LAL-.YYYY.-,HR-EMP-00088,Sick Leave,1/1/2021,12/31/2021,15,15
,HR-LAL-.YYYY.-,HR-EMP-00089,Sick Leave,1/1/2021,12/31/2021,15,15
,HR-LAL-.YYYY.-,HR-EMP-00090,Sick Leave,1/1/2021,12/31/2021,15,15
,HR-LAL-.YYYY.-,HR-EMP-00091,Sick Leave,1/1/2021,12/31/2021,15,15
,HR-LAL-.YYYY.-,HR-EMP-00092,Sick Leave,1/1/2021,12/31/2021,15,15
,HR-LAL-.YYYY.-,HR-EMP-00093,Sick Leave,1/1/2021,12/31/2021,15,15
,HR-LAL-.YYYY.-,HR-EMP-00094,Sick Leave,1/1/2021,12/31/2021,15,15
,HR-LAL-.YYYY.-,HR-EMP-00095,Sick Leave,1/1/2021,12/31/2021,15,15
,HR-LAL-.YYYY.-,HR-EMP-00096,Sick Leave,1/1/2021,12/31/2021,15,15
,HR-LAL-.YYYY.-,HR-EMP-00097,Sick Leave,1/1/2021,12/31/2021,15,15
,HR-LAL-.YYYY.-,HR-EMP-00098,Sick Leave,1/1/2021,12/31/2021,15,15
,HR-LAL-.YYYY.-,HR-EMP-00099,Sick Leave,1/1/2021,12/31/2021,15,15
,HR-LAL-.YYYY.-,HR-EMP-00100,Sick Leave,1/1/2021,12/31/2021,15,15
,HR-LAL-.YYYY.-,HR-EMP-00101,Sick Leave,1/1/2021,12/31/2021,15,15
,HR-LAL-.YYYY.-,HR-EMP-00102,Sick Leave,1/1/2021,12/31/2021,15,15
,HR-LAL-.YYYY.-,HR-EMP-00103,Sick Leave,1/1/2021,12/31/2021,15,15
,HR-LAL-.YYYY.-,HR-EMP-00104,Sick Leave,1/1/2021,12/31/2021,15,15
,HR-LAL-.YYYY.-,HR-EMP-00105,Sick Leave,1/1/2021,12/31/2021,15,15
,HR-LAL-.YYYY.-,HR-EMP-00106,Sick Leave,1/1/2021,12/31/2021,15,15
,HR-LAL-.YYYY.-,HR-EMP-00107,Sick Leave,1/1/2021,12/31/2021,15,15
,HR-LAL-.YYYY.-,HR-EMP-00108,Sick Leave,1/1/2021,12/31/2021,15,15
,HR-LAL-.YYYY.-,HR-EMP-00109,Sick Leave,1/1/2021,12/31/2021,15,15
,HR-LAL-.YYYY.-,HR-EMP-00110,Sick Leave,1/1/2021,12/31/2021,15,15
,HR-LAL-.YYYY.-,HR-EMP-00111,Sick Leave,1/1/2021,12/31/2021,15,15
,HR-LAL-.YYYY.-,HR-EMP-00112,Sick Leave,1/1/2021,12/31/2021,15,15
