ID,Series,Employee,Leave Type,From Date,To Date,Total Leaves Allocated,New Leaves Allocated
,HR-LAL-.YYYY.-,HR-EMP-00001,Annual Leave,11-07-2018,31-12-2021,0,0
,HR-LAL-.YYYY.-,HR-EMP-00004,Annual Leave,05-09-2019,31-12-2021,0,0
,HR-LAL-.YYYY.-,HR-EMP-00006,Annual Leave,09-04-2019,31-12-2021,0,0
,HR-LAL-.YYYY.-,HR-EMP-00007,Annual Leave,14-05-2018,31-12-2021,0,0
,HR-LAL-.YYYY.-,HR-EMP-00010,Annual Leave,31-12-2018,31-12-2021,0,0
,HR-LAL-.YYYY.-,HR-EMP-00011,Annual Leave,16-12-2018,31-12-2021,0,0
,HR-LAL-.YYYY.-,HR-EMP-00012,Annual Leave,22-01-2019,31-12-2021,0,0
,HR-LAL-.YYYY.-,HR-EMP-00014,Annual Leave,20-01-2019,31-12-2021,0,0
,HR-LAL-.YYYY.-,HR-EMP-00015,Annual Leave,20-01-2019,31-12-2021,0,0
,HR-LAL-.YYYY.-,HR-EMP-00017,Annual Leave,16-05-2019,31-12-2021,0,0
,HR-LAL-.YYYY.-,HR-EMP-00019,Annual Leave,11-10-2019,31-12-2021,0,0
,HR-LAL-.YYYY.-,HR-EMP-00020,Annual Leave,25-12-2019,31-12-2021,0,0
,HR-LAL-.YYYY.-,HR-EMP-00021,Annual Leave,18-10-2018,31-12-2021,0,0
,HR-LAL-.YYYY.-,HR-EMP-00023,Annual Leave,06-06-2018,31-12-2021,0,0
,HR-LAL-.YYYY.-,HR-EMP-00039,Annual Leave,11-03-2018,31-12-2021,0,0
,HR-LAL-.YYYY.-,HR-EMP-00040,Annual Leave,07-07-2018,31-12-2021,0,0
,HR-LAL-.YYYY.-,HR-EMP-00042,Annual Leave,06-07-2018,31-12-2021,0,0
,HR-LAL-.YYYY.-,HR-EMP-00047,Annual Leave,17-10-2018,31-12-2021,0,0
,HR-LAL-.YYYY.-,HR-EMP-00053,Annual Leave,23-08-2018,31-12-2021,0,0
,HR-LAL-.YYYY.-,HR-EMP-00054,Annual Leave,22-01-2019,31-12-2021,0,0
,HR-LAL-.YYYY.-,HR-EMP-00065,Annual Leave,30-10-2019,31-12-2021,0,0
,HR-LAL-.YYYY.-,HR-EMP-00066,Annual Leave,11-09-2019,31-12-2021,0,0
,HR-LAL-.YYYY.-,HR-EMP-00086,Annual Leave,15-08-2020,31-12-2021,0,0
,HR-LAL-.YYYY.-,HR-EMP-00088,Annual Leave,25-07-2020,31-12-2021,0,0
,HR-LAL-.YYYY.-,HR-EMP-00089,Annual Leave,13-09-2020,31-12-2021,0,0
,HR-LAL-.YYYY.-,HR-EMP-00095,Annual Leave,10-07-2020,31-12-2021,0,0
,HR-LAL-.YYYY.-,HR-EMP-00097,Annual Leave,16-10-2020,31-12-2021,0,0
,HR-LAL-.YYYY.-,HR-EMP-00034,Annual Leave,25-07-2018,31-12-2021,103,103
,HR-LAL-.YYYY.-,HR-EMP-00034,Sick Leave,01-01-2021,31-12-2021,15,15
,,,,,,,
,,,,,,,
,,,,,,,
,,,,,,,
,,,,,,,
,,,,,,,
,,,,,,,
,,,,,,,
,,,,,,,
,,,,,,,
