ID,Shift Type,Employee,Company,To Date,From Date
,MD-Night,HR-EMP-00059,Mood,10/25/2020,10/30/2020
,MD-Night,HR-EMP-00059,Mood,11/1/2020,11/6/2020
,MD-Night,HR-EMP-00059,Mood,11/8/2020,11/8/2020
,MD-Custom,HR-EMP-00059,Mood,11/9/2020,11/13/2020
,MD-Night,HR-EMP-00070,Mood,10/26/2020,10/30/2020
,MD-Custom,HR-EMP-00070,Mood,10/31/2020,10/31/2020
,MD-Night,HR-EMP-00070,Mood,11/2/2020,11/2/2020
,MD-Custom,HR-EMP-00070,Mood,11/3/2020,11/3/2020
,MD-Custom,HR-EMP-00070,Mood,11/5/2020,11/6/2020
,MD-Night,HR-EMP-00070,Mood,11/7/2020,11/7/2020
,MD-Night,HR-EMP-00070,Mood,11/9/2020,11/10/2020
,MD-Night,HR-EMP-00070,Mood,11/12/2020,11/13/2020
,MD-Night,HR-EMP-00078,Mood,10/25/2020,10/25/2020
,MD-Mid,HR-EMP-00078,Mood,10/28/2020,10/28/2020
,MD-Night,HR-EMP-00078,Mood,10/29/2020,10/31/2020
,MD-Night,HR-EMP-00078,Mood,11/3/2020,11/6/2020
,MD-Morning,HR-EMP-00073,,10/25/2020,10/27/2020
,MD-Morning,HR-EMP-00073,,10/30/2020,11/4/2020
,MD-Morning,HR-EMP-00073,,11/6/2020,11/11/2020
,MD-Morning,HR-EMP-00073,,11/13/2020,11/14/2020
,MD-Morning,HR-EMP-00052,Mood,10/25/2020,10/26/2020
,MD-Morning,HR-EMP-00052,Mood,10/29/2020,11/2/2020
,MD-Morning,HR-EMP-00052,Mood,11/4/2020,11/9/2020
,MD-Custom,HR-EMP-00052,Mood,11/11/2020,11/11/2020
,MD-Night,HR-EMP-00052,Mood,11/12/2020,11/14/2020
,MD-Night,HR-EMP-00068,Mood,10/25/2020,10/25/2020
,MD-Morning,HR-EMP-00068,Mood,10/27/2020,10/28/2020
,MD-Night,HR-EMP-00068,Mood,10/30/2020,11/1/2020
,MD-Morning,HR-EMP-00068,Mood,11/3/2020,11/3/2020
,MD-Night,HR-EMP-00068,Mood,11/4/2020,11/7/2020
,MD-Morning,HR-EMP-00068,Mood,11/10/2020,11/14/2020
,MD-Night,HR-EMP-00064,Mood,10/26/2020,10/28/2020
,MD-Custom,HR-EMP-00064,Mood,10/29/2020,10/29/2020
,MD-Night,HR-EMP-00064,Mood,10/31/2020,11/3/2020
,MD-Custom,HR-EMP-00064,Mood,11/4/2020,11/5/2020
,MD-Night,HR-EMP-00064,Mood,11/7/2020,11/12/2020
,MD-Night,HR-EMP-00064,Mood,11/14/2020,11/14/2020
,MD-Custom,HR-EMP-00061,Mood,10/27/2020,11/1/2020
,MD-Custom,HR-EMP-00061,Mood,11/3/2020,11/6/2020
,MD-Custom,HR-EMP-00061,Mood,11/10/2020,11/12/2020
,MD-Morning,HR-EMP-00061,Mood,11/13/2020,11/13/2020
,MD-Custom,HR-EMP-00061,Mood,11/14/2020,11/14/2020
,MD-Night,HR-EMP-00056,Mood,10/25/2020,10/27/2020
,MD-Night,HR-EMP-00056,Mood,10/29/2020,10/31/2020
,MD-Morning,HR-EMP-00056,Mood,11/2/2020,11/2/2020
,MD-Night,HR-EMP-00056,Mood,11/2/2020,11/2/2020
,MD-Custom,HR-EMP-00056,Mood,11/6/2020,11/6/2020
,MD-Night,HR-EMP-00056,Mood,11/7/2020,11/7/2020
,MD-Morning,HR-EMP-00056,Mood,11/8/2020,11/9/2020
,MD-Night,HR-EMP-00056,Mood,11/10/2020,11/11/2020
,MD-Morning,HR-EMP-00056,Mood,11/14/2020,11/14/2020
,MD-Night,HR-EMP-00067,Mood,10/25/2020,10/28/2020
,MD-Night,HR-EMP-00067,Mood,11/1/2020,11/2/2020
,MD-Night,HR-EMP-00067,Mood,11/5/2020,11/9/2020
,MD-Night,HR-EMP-00067,Mood,11/11/2020,11/14/2020
,MD-Morning,HR-EMP-00008,Mood,10/25/2020,10/25/2020
,MD-Custom,HR-EMP-00008,Mood,10/26/2020,10/26/2020
,MD-Custom,HR-EMP-00008,Mood,10/28/2020,11/5/2020
,MD-Custom,HR-EMP-00008,Mood,11/7/2020,11/10/2020
,MD-Custom,HR-EMP-00008,Mood,11/12/2020,11/14/2020
,MD-Custom,HR-EMP-00072,Mood,10/25/2020,10/25/2020
,MD-Morning,HR-EMP-00072,Mood,10/26/2020,10/29/2020
,MD-Morning,HR-EMP-00072,Mood,10/31/2020,11/1/2020
,MD-Custom,HR-EMP-00072,Mood,11/2/2020,11/2/2020
,MD-Morning,HR-EMP-00072,Mood,11/3/2020,11/3/2020
,MD-Custom,HR-EMP-00072,Mood,11/4/2020,11/5/2020
,MD-Morning,HR-EMP-00072,Mood,11/7/2020,11/12/2020
,MD-Custom,HR-EMP-00060,Mood,10/25/2020,10/26/2020
,MD-Custom,HR-EMP-00060,Mood,10/28/2020,10/29/2020
,MD-Night,HR-EMP-00060,Mood,10/30/2020,10/31/2020
,MD-Night,HR-EMP-00060,Mood,11/3/2020,11/3/2020
,MD-Custom,HR-EMP-00060,Mood,11/4/2020,11/5/2020
,MD-Night,HR-EMP-00060,Mood,11/6/2020,11/8/2020
,MD-Custom,HR-EMP-00060,Mood,11/6/2020,11/6/2020
,MD-Custom,HR-EMP-00060,Mood,11/11/2020,11/12/2020
,MD-Night,HR-EMP-00060,Mood,11/13/2020,11/14/2020
,MD-Custom,HR-EMP-00094,Mood,10/25/2020,10/27/2020
,MD-Morning,HR-EMP-00094,Mood,10/28/2020,10/29/2020
,MD-Custom,HR-EMP-00094,Mood,11/1/2020,11/3/2020
,MD-Morning,HR-EMP-00094,Mood,11/5/2020,11/5/2020
,MD-Custom,HR-EMP-00094,Mood,11/6/2020,11/10/2020
,MD-Custom,HR-EMP-00094,Mood,11/12/2020,11/14/2020
