ID,Shift Type,Employee,Company,From Date,To Date
,MD-Mid,HR-EMP-00055,Mood,11/23/2020,11/23/2020
,MD-Mid,HR-EMP-00055,Mood,11/24/2020,11/24/2020
,MD-Mid,HR-EMP-00055,Mood,11/25/2020,11/25/2020
,MD-Mid,HR-EMP-00055,Mood,11/26/2020,11/26/2020
,MD-Morning,HR-EMP-00055,Mood,11/27/2020,11/27/2020
,MD-Morning,HR-EMP-00055,Mood,11/28/2020,11/28/2020
,MD-Morning,HR-EMP-00075,Mood,11/22/2020,11/22/2020
,MD-Morning,HR-EMP-00075,Mood,11/23/2020,11/23/2020
,MD-Morning,HR-EMP-00075,Mood,11/24/2020,11/24/2020
,MD-Morning,HR-EMP-00075,Mood,11/25/2020,11/25/2020
,MD-Morning,HR-EMP-00075,Mood,11/26/2020,11/26/2020
,MD-Mid,HR-EMP-00075,Mood,11/28/2020,11/28/2020
,MD-Night,HR-EMP-00076,Mood,11/22/2020,11/22/2020
,MD-Night,HR-EMP-00076,Mood,11/23/2020,11/23/2020
,MD-Night,HR-EMP-00076,Mood,11/24/2020,11/24/2020
,MD-Night,HR-EMP-00076,Mood,11/25/2020,11/25/2020
,MD-Night,HR-EMP-00076,Mood,11/26/2020,11/26/2020
,MD-Night,HR-EMP-00076,Mood,11/27/2020,11/27/2020
,MD-Night,HR-EMP-00069,Mood,11/22/2020,11/22/2020
,MD-Night,HR-EMP-00069,Mood,11/23/2020,11/23/2020
,MD-Night,HR-EMP-00069,Mood,11/24/2020,11/24/2020
,MD-Night,HR-EMP-00069,Mood,11/26/2020,11/26/2020
,MD-Night,HR-EMP-00069,Mood,11/27/2020,11/27/2020
,MD-Night,HR-EMP-00069,Mood,11/28/2020,11/28/2020
,MD-Custom,HR-EMP-00102,Mood,11/22/2020,11/22/2020
,MD-Custom,HR-EMP-00102,Mood,11/23/2020,11/23/2020
,MD-Night,HR-EMP-00102,Mood,11/25/2020,11/25/2020
,MD-Night,HR-EMP-00102,Mood,11/26/2020,11/26/2020
,MD-Night,HR-EMP-00102,Mood,11/27/2020,11/27/2020
,MD-Night,HR-EMP-00102,Mood,11/28/2020,11/28/2020
,MD-Night,HR-EMP-00078,Mood,11/22/2020,11/22/2020
,MD-Night,HR-EMP-00078,Mood,11/24/2020,11/24/2020
,MD-Night,HR-EMP-00078,Mood,11/25/2020,11/25/2020
,MD-Night,HR-EMP-00078,Mood,11/26/2020,11/26/2020
,MD-Night,HR-EMP-00078,Mood,11/27/2020,11/27/2020
,MD-Night,HR-EMP-00078,Mood,11/28/2020,11/28/2020
,MD-Custom,HR-EMP-00097,Mood,11/23/2020,11/23/2020
,MD-Custom,HR-EMP-00097,Mood,11/24/2020,11/24/2020
,MD-Custom,HR-EMP-00097,Mood,11/25/2020,11/25/2020
,MD-Custom,HR-EMP-00097,Mood,11/26/2020,11/26/2020
,MD-Custom,HR-EMP-00097,Mood,11/27/2020,11/27/2020
,MD-Custom,HR-EMP-00097,Mood,11/28/2020,11/28/2020
,MD-Night,HR-EMP-00096,Mood,11/22/2020,11/22/2020
,MD-Night,HR-EMP-00096,Mood,11/23/2020,11/24/2020
,MD-Night,HR-EMP-00096,Mood,11/25/2020,11/25/2020
,MD-Night,HR-EMP-00096,Mood,11/26/2020,11/26/2020
,MD-Night,HR-EMP-00096,Mood,11/27/2020,11/27/2020
,MD-Night,HR-EMP-00096,Mood,11/28/2020,11/28/2020
,MD-Morning,HR-EMP-00068,Mood,11/24/2020,11/24/2020
,MD-Morning,HR-EMP-00068,Mood,11/25/2020,11/25/2020
,MD-Morning,HR-EMP-00068,Mood,11/26/2020,11/26/2020
,MD-Morning,HR-EMP-00068,Mood,11/27/2020,11/27/2020
,MD-Morning,HR-EMP-00068,Mood,11/28/2020,11/28/2020
,MD-Morning,HR-EMP-00057,Mood,11/23/2020,11/23/2020
,MD-Morning,HR-EMP-00057,Mood,11/24/2020,11/24/2020
,MD-Morning,HR-EMP-00057,Mood,11/25/2020,11/25/2020
,MD-Morning,HR-EMP-00057,Mood,11/26/2020,11/26/2020
,MD-Morning,HR-EMP-00057,Mood,11/27/2020,11/27/2020
,MD-Morning,HR-EMP-00057,Mood,11/28/2020,11/28/2020
,MD-Night,HR-EMP-00063,Mood,11/22/2020,11/22/2020
,MD-Night,HR-EMP-00063,Mood,11/23/2020,11/23/2020
,MD-Night,HR-EMP-00063,Mood,11/24/2020,11/24/2020
,MD-Night,HR-EMP-00063,Mood,11/25/2020,11/25/2020
,MD-Night,HR-EMP-00063,Mood,11/26/2020,11/26/2020
,MD-Night,HR-EMP-00063,Mood,11/27/2020,11/27/2020
,MD-Morning,HR-EMP-00077,Mood,11/22/2020,11/22/2020
,MD-Morning,HR-EMP-00077,Mood,11/24/2020,11/24/2020
,MD-Morning,HR-EMP-00077,Mood,11/25/2020,11/25/2020
,MD-Morning,HR-EMP-00077,Mood,11/26/2020,11/26/2020
,MD-Morning,HR-EMP-00077,Mood,11/27/2020,11/27/2020
,MD-Morning,HR-EMP-00077,Mood,11/28/2020,11/28/2020
,MD-Morning,HR-EMP-00071,Mood,11/22/2020,11/22/2020
,MD-Morning,HR-EMP-00071,Mood,11/23/2020,11/23/2020
,MD-Night,HR-EMP-00071,Mood,11/25/2020,11/25/2020
,MD-Custom,HR-EMP-00071,Mood,11/26/2020,11/26/2020
,MD-Custom,HR-EMP-00071,Mood,11/27/2020,11/27/2020
,MD-Custom,HR-EMP-00071,Mood,11/28/2020,11/28/2020
,MD-Custom,HR-EMP-00074,Mood,11/22/2020,11/22/2020
,MD-Mid,HR-EMP-00074,Mood,11/23/2020,11/23/2020
,MD-Mid,HR-EMP-00074,Mood,11/25/2020,11/25/2020
,MD-Mid,HR-EMP-00074,Mood,11/26/2020,11/26/2020
,MD-Mid,HR-EMP-00074,Mood,11/27/2020,11/27/2020
,MD-Mid,HR-EMP-00074,Mood,11/28/2020,11/28/2020
,MD-Night,HR-EMP-00098,Mood,11/23/2020,11/23/2020
,MD-Custom,HR-EMP-00098,Mood,11/24/2020,11/24/2020
,MD-Night,HR-EMP-00098,Mood,11/25/2020,11/25/2020
,MD-Night,HR-EMP-00098,Mood,11/26/2020,11/26/2020
,MD-Night,HR-EMP-00098,Mood,11/27/2020,11/27/2020
,MD-Night,HR-EMP-00098,Mood,11/28/2020,11/28/2020
,MD-Custom,HR-EMP-00087,Mood,11/22/2020,11/22/2020
,MD-Custom,HR-EMP-00087,Mood,11/23/2020,11/23/2020
,MD-Custom,HR-EMP-00087,Mood,11/24/2020,11/24/2020
,MD-Custom,HR-EMP-00087,Mood,11/25/2020,11/25/2020
,MD-Custom,HR-EMP-00087,Mood,11/26/2020,11/26/2020
,MD-Custom,HR-EMP-00087,Mood,11/28/2020,11/28/2020
,MD-Custom,HR-EMP-00058,Mood,11/22/2020,11/22/2020
,MD-Custom,HR-EMP-00058,Mood,11/23/2020,11/23/2020
,MD-Custom,HR-EMP-00058,Mood,11/25/2020,11/25/2020
,MD-Custom,HR-EMP-00058,Mood,11/26/2020,11/26/2020
,MD-Custom,HR-EMP-00058,Mood,11/27/2020,11/27/2020
,MD-Custom,HR-EMP-00058,Mood,11/28/2020,11/28/2020
