ID,Shift Type,Employee,Company,From Date,To Date
,MZ-Custom,HR-EMP-00041,Manzo,2020-10-04,2020-10-04
,MZ-Custom,HR-EMP-00041,Manzo,2020-10-06,2020-10-10
,MZ-Custom,HR-EMP-00033,Manzo,2020-10-05,2020-10-10
,MZ-Custom,HR-EMP-00033,Manzo,2020-10-05,2020-10-10
,MZ-Custom,HR-EMP-00027,Manzo,2020-10-04,2020-10-07
,MZ-Custom,HR-EMP-00027,Manzo,2020-10-09,2020-10-10
,MZ-Custom,HR-EMP-00027,Manzo,2020-10-09,2020-10-10
,MZ-Custom,HR-EMP-00018,Manzo,2020-10-04,2020-10-10
,,,,,
,,,,,
,,,,,
,,,,,
,,,,,
,,,,,
,,,,,
,,,,,
,,,,,
,,,,,
,,,,,
,,,,,
,,,,,
,,,,,
,,,,,
,,,,,
,,,,,
,,,,,
