ID,Shift Type,Employee,Company,From Date,To Date
,"MD-Morning
",HR-EMP-00055,Mood Khaleedia,2020-10-05,2020-10-07
,MD-Mid,HR-EMP-00055,Mood Khaleedia,2020-10-08,2020-10-09
,"MD-Morning
",HR-EMP-00055,Mood Khaleedia,2020-10-10,2020-10-10
,"MD-Morning
",HR-EMP-00075,Mood Khaleedia,2020-10-04,2020-10-04
,MD-Morning,HR-EMP-00075,Mood Khaleedia,2020-10-06,2020-10-10
,MD-Night,HR-EMP-00076,Mood Khaleedia,2020-10-04,2020-10-09
,MD-Night,HR-EMP-00069,Mood Khaleedia,2020-10-04,2020-10-05
,MD-Night,HR-EMP-00069,Mood Khaleedia,2020-10-07,2020-10-10
,"MD-Morning
",HR-EMP-00057,Mood Khaleedia,2020-10-05,2020-10-10
,"MD-Morning
",HR-EMP-00063,Mood Khaleedia,2020-10-04,2020-10-04
,MD-Night,HR-EMP-00063,Mood Khaleedia,2020-10-05,2020-10-09
,MD-Night,HR-EMP-00077,Mood Khaleedia,2020-10-04,2020-10-05
,MD-Morning,HR-EMP-00077,Mood Khaleedia,2020-10-07,2020-10-07
,MD-Night,HR-EMP-00077,Mood Khaleedia,2020-10-08,2020-10-10
,MD-Night,HR-EMP-00071,Mood Khaleedia,2020-10-04,2020-10-04
,MD-Night,HR-EMP-00071,Mood Khaleedia,2020-10-06,2020-10-07
,MD-Night,HR-EMP-00071,Mood Khaleedia,2020-10-10,2020-10-10
,MD-Custom,HR-EMP-00074,Mood Khaleedia,2020-10-04,2020-10-04
,MD-Custom,HR-EMP-00074,Mood Khaleedia,2020-10-06,2020-10-10
,MD-Custom,HR-EMP-00058,Mood Khaleedia,2020-10-04,2020-10-10
,MD-Custom,HR-EMP-00087,Mood Khaleedia,2020-10-04,2020-10-08
,MD-Custom,HR-EMP-00087,Mood Khaleedia,2020-10-04,2020-10-10
