ID,Shift Type,Employee,Company,To Date,From Date
,MD-Night,HR-EMP-00059,Mood,2020-10-13,2020-10-11
,MD-Night,HR-EMP-00059,Mood,2020-10-20,2020-10-15
,MD-Night,HR-EMP-00059,Mood,2020-10-27,2020-10-22
,MD-Night,HR-EMP-00059,Mood,2020-10-31,2020-10-29
,MD-Night,HR-EMP-00070,Mood,2020-10-16,2020-10-12
,MD-Custom,HR-EMP-00070,Mood,2020-10-17,2020-10-17
,MD-Night,HR-EMP-00070,Mood,2020-10-19,2020-10-19
,MD-Night,HR-EMP-00070,Mood,2020-10-24,2020-10-20
,MD-First,HR-EMP-00070,Mood,2020-10-31,2020-10-26
,MD-Night,HR-EMP-00078,Mood,2020-10-11,2020-10-11
,MD-Night,HR-EMP-00078,Mood,2020-10-16,2020-10-13
,MD-Night,HR-EMP-00078,Mood,2020-10-18,2020-10-18
,MD-Night,HR-EMP-00078,Mood,2020-10-25,2020-10-20
,MD-Night,HR-EMP-00078,Mood,2020-10-31,2020-10-27
,MD-First,HR-EMP-00073,Mood,2020-10-14,2020-10-11
,MD-First,HR-EMP-00073,Mood,2020-10-21,2020-10-16
,MD-First,HR-EMP-00073,Mood,2020-10-26,2020-10-25
,MD-Night,HR-EMP-00073,Mood,2020-10-24,2020-10-23
,MD-Night,HR-EMP-00073,Mood,2020-10-31,2020-10-28
,MD-First,HR-EMP-00052,Mood,2020-10-11,2020-10-11
,MD-First,HR-EMP-00052,Mood,2020-10-18,2020-10-13
,MD-First,HR-EMP-00052,Mood,2020-10-25,2020-10-20
,MD-First,HR-EMP-00052,Mood,2020-10-31,2020-10-27
,MD-Custom,HR-EMP-00068,Mood,2020-10-11,2020-10-11
,MD-First,HR-EMP-00068,Mood,2020-10-12,2020-10-12
,MD-Night,HR-EMP-00068,Mood,2020-10-17,2020-10-14
,MD-Custom,HR-EMP-00068,Mood,2020-10-18,2020-10-18
,MD-First,HR-EMP-00068,Mood,2020-10-19,2020-10-19
,MD-Night,HR-EMP-00068,Mood,2020-10-24,2020-10-21
,MD-Custom,HR-EMP-00068,Mood,2020-10-25,2020-10-25
,MD-First,HR-EMP-00068,Mood,2020-10-26,2020-10-26
,MD-Night,HR-EMP-00068,Mood,2020-10-31,2020-10-28
,MD-Night,HR-EMP-00064,Mood,2020-10-15,2020-10-11
,MD-Night,HR-EMP-00064,Mood,2020-10-22,2020-10-17
,MD-Night,HR-EMP-00064,Mood,2020-10-29,2020-10-24
,MD-Night,HR-EMP-00064,Mood,2020-10-31,2020-10-31
,MD-Custom,HR-EMP-00061,Mood,2020-10-17,2020-10-12
,MD-Custom,HR-EMP-00061,Mood,2020-10-24,2020-10-19
,MD-Custom,HR-EMP-00061,Mood,2020-10-31,2020-10-26
,MD-Morning,HR-EMP-00056,Mood,2020-10-14,2020-10-11
,MD-Morning,HR-EMP-00056,Mood,2020-10-21,2020-10-16
,MD-Morning,HR-EMP-00056,Mood,2020-10-28,2020-10-23
,MD-Morning,HR-EMP-00056,Mood,2020-10-31,2020-10-30
,MD-Custom,HR-EMP-00067,Mood,2020-10-11,2020-10-11
,MD-Night,HR-EMP-00067,Mood,2020-10-15,2020-10-12
,MD-Night,HR-EMP-00067,Mood,2020-10-17,2020-10-17
,MD-Custom,HR-EMP-00067,Mood,2020-10-18,2020-10-18
,MD-Night,HR-EMP-00067,Mood,2020-10-22,2020-10-19
,MD-Night,HR-EMP-00067,Mood,2020-10-24,2020-10-24
,MD-Custom,HR-EMP-00067,Mood,2020-10-25,2020-10-25
,MD-Night,HR-EMP-00067,Mood,2020-10-29,2020-10-26
,MD-Night,HR-EMP-00067,Mood,2020-10-31,2020-10-31
,MD-Night,HR-EMP-00061,Mood,2020-10-15,2020-10-11
,MD-Night,HR-EMP-00061,Mood,2020-10-22,2020-10-17
,MD-Night,HR-EMP-00061,Mood,2020-10-29,2020-10-24
,MD-Night,HR-EMP-00061,Mood,2020-10-31,2020-10-31
,MD-Custom,HR-EMP-00060,Mood,2020-10-12,2020-10-11
,MD-Custom,HR-EMP-00060,Mood,2020-10-19,2020-10-14
,MD-Custom,HR-EMP-00060,Mood,2020-10-19,2020-10-14
,MD-Custom,HR-EMP-00060,Mood,2020-10-26,2020-10-21
,MD-Custom,HR-EMP-00060,Mood,2020-10-31,2020-10-28
,MD-Mid,HR-EMP-00094,Mood,2020-10-12,2020-10-11
,MD-Mid,HR-EMP-00094,Mood,2020-10-19,2020-10-14
,MD-Mid,HR-EMP-00094,Mood,2020-10-26,2020-10-21
,MD-Mid,HR-EMP-00094,Mood,2020-10-31,2020-10-28
