ID,Shift Type,Employee,Company,From Date,To Date
,MZ-Mid-shift,HR-EMP-00083,Manzo,10/11/2020,10/11/2020
,MD-Morning,HR-EMP-00083,Manzo,10/13/2020,10/13/2020
,MZ-Mid-shift,HR-EMP-00083,Manzo,10/14/2020,10/18/2020
,MD-Morning,HR-EMP-00083,Manzo,10/20/2020,10/20/2020
,MZ-Mid-shift,HR-EMP-00083,Manzo,10/21/2020,10/24/2020
,MD-Morning,HR-EMP-00022,Manzo,10/11/2020,10/11/2020
,MD-Morning,HR-EMP-00022,Manzo,10/12/2020,10/15/2020
,MZ-Custom,HR-EMP-00022,Manzo,10/18/2020,10/22/2020
,MZ-Custom,HR-EMP-00022,Manzo,10/24/2020,10/24/2020
,MD-Night,HR-EMP-00062,Manzo,10/11/2020,10/11/2020
,MD-Morning,HR-EMP-00062,Manzo,10/12/2020,10/12/2020
,MD-Morning,HR-EMP-00062,Manzo,10/14/2020,10/15/2020
,MD-Night,HR-EMP-00062,Manzo,10/16/2020,10/16/2020
,MD-Morning,HR-EMP-00062,Manzo,10/17/2020,10/18/2020
,MD-Night,HR-EMP-00062,Manzo,10/21/2020,10/23/2020
,MD-Morning,HR-EMP-00062,Manzo,10/24/2020,10/24/2020
,MD-Night,HR-EMP-00047,Manzo,10/11/2020,10/12/2020
,MD-Night,HR-EMP-00047,Manzo,10/15/2020,10/20/2020
,MD-Night,HR-EMP-00047,Manzo,10/22/2020,10/24/2020
,MD-Morning,HR-EMP-00025,Manzo,10/12/2020,10/15/2020
,MD-Morning,HR-EMP-00025,Manzo,10/16/2020,10/17/2020
,MD-Night,HR-EMP-00025,Manzo,10/19/2020,10/24/2020
,MZ-Custom,HR-EMP-00038,Manzo,10/11/2020,10/11/2020
,MD-Night,HR-EMP-00038,Manzo,10/13/2020,10/15/2020
,MD-Morning,HR-EMP-00038,Manzo,10/16/2020,10/16/2020
,MD-Morning,HR-EMP-00038,Manzo,10/18/2020,10/19/2020
,MD-Night,HR-EMP-00038,Manzo,10/21/2020,10/21/2020
,MD-Morning,HR-EMP-00038,Manzo,10/22/2020,10/23/2020
,MZ-Custom,HR-EMP-00034,Manzo,10/11/2020,10/12/2020
,MZ-Custom,HR-EMP-00034,Manzo,10/15/2020,10/19/2020
,MZ-Custom,HR-EMP-00034,Manzo,10/22/2020,10/24/2020
,MZ-Custom,HR-EMP-00028,Manzo,10/11/2020,10/15/2020
,MZ-Custom,HR-EMP-00028,Manzo,10/18/2020,10/22/2020
,MZ-Custom,HR-EMP-00013,Manzo,10/12/2020,10/17/2020
,MZ-Custom,HR-EMP-00013,Manzo,10/19/2020,10/24/2020
,MZ-Custom,HR-EMP-00026,Manzo,10/11/2020,10/11/2020
,MZ-Custom,HR-EMP-00026,Manzo,10/13/2020,10/18/2020
,MZ-Custom,HR-EMP-00026,Manzo,10/20/2020,10/24/2020
