ID,Shift Type,Employee,Company,From Date,To Date
,MZ-Morning-shift,HR-EMP-00095,Manzo,15/11/2020,15/11/2020
,MZ-Morning-shift,HR-EMP-00095,Manzo,17/11/2020,17/11/2020
,MZ-Morning-shift,HR-EMP-00095,Manzo,18/11/2020,18/11/2020
,MZ-Morning-shift,HR-EMP-00095,Manzo,19/11/2020,19/11/2020
,MZ-Morning-shift,HR-EMP-00095,Manzo,20/11/2020,20/11/2020
,MZ-Morning-shift,HR-EMP-00095,Manzo,21/11/2020,21/11/2020
,MZ-Night-shift,HR-EMP-00043,Manzo,15/11/2020,15/11/2020
,MZ-Night-shift,HR-EMP-00043,Manzo,16/11/2020,16/11/2020
,MZ-Night-shift,HR-EMP-00043,Manzo,17/11/2020,17/11/2020
,MZ-Night-shift,HR-EMP-00043,Manzo,20/11/2020,20/11/2020
,MZ-Night-shift,HR-EMP-00043,Manzo,21/11/2020,21/11/2020
,MZ-Night-shift,HR-EMP-00090,Manzo,15/11/2020,15/11/2020
,MZ-Morning-shift,HR-EMP-00090,Manzo,16/11/2020,16/11/2020
,MZ-Morning-shift,HR-EMP-00090,Manzo,17/11/2020,17/11/2020
,MZ-Night-shift,HR-EMP-00090,Manzo,18/11/2020,18/11/2020
,MZ-Night-shift,HR-EMP-00090,Manzo,19/11/2020,19/11/2020
,MZ-Night-shift,HR-EMP-00090,Manzo,20/11/2020,20/11/2020
,MZ-Night-shift,HR-EMP-00024,Manzo,17/11/2020,17/11/2020
,MZ-Night-shift,HR-EMP-00024,Manzo,18/11/2020,18/11/2020
,MZ-Night-shift,HR-EMP-00024,Manzo,19/11/2020,19/11/2020
,MZ-Night-shift,HR-EMP-00024,Manzo,20/11/2020,20/11/2020
,MZ-Night-shift,HR-EMP-00024,Manzo,21/11/2020,21/11/2020
,MZ-Night-shift,HR-EMP-00081,Manzo,15/11/2020,15/11/2020
,MZ-Night-shift,HR-EMP-00081,Manzo,16/11/2020,16/11/2020
,MZ-Night-shift,HR-EMP-00081,Manzo,17/11/2020,17/11/2020
,MZ-Night-shift,HR-EMP-00081,Manzo,18/11/2020,18/11/2020
,MZ-Night-shift,HR-EMP-00081,Manzo,19/11/2020,19/11/2020
,MZ-Night-shift,HR-EMP-00080,Manzo,15/11/2020,15/11/2020
,MZ-Night-shift,HR-EMP-00080,Manzo,16/11/2020,16/11/2020
,MZ-Morning-shift,HR-EMP-00080,Manzo,17/11/2020,17/11/2020
,MZ-Morning-shift,HR-EMP-00080,Manzo,18/11/2020,18/11/2020
,MZ-Night-shift,HR-EMP-00080,Manzo,20/11/2020,20/11/2020
,MZ-Night-shift,HR-EMP-00080,Manzo,21/11/2020,21/11/2020
,MZ-Morning-shift,HR-EMP-00045,Manzo,15/11/2020,15/11/2020
,MZ-Custom,HR-EMP-00045,Manzo,16/11/2020,16/11/2020
,MZ-Morning-shift,HR-EMP-00045,Manzo,19/11/2020,19/11/2020
,MZ-Morning-shift,HR-EMP-00045,Manzo,20/11/2020,20/11/2020
,MZ-Morning-shift,HR-EMP-00045,Manzo,21/11/2020,21/11/2020
,MZ-Custom,HR-EMP-00048,Manzo,16/11/2020,16/11/2020
,MZ-Custom,HR-EMP-00048,Manzo,17/11/2020,17/11/2020
,MZ-Custom,HR-EMP-00048,Manzo,18/11/2020,18/11/2020
,MZ-Custom,HR-EMP-00048,Manzo,19/11/2020,19/11/2020
,MZ-Custom,HR-EMP-00048,Manzo,20/11/2020,20/11/2020
,MZ-Custom,HR-EMP-00048,Manzo,21/11/2020,21/11/2020
,MZ-Custom,HR-EMP-00050,Manzo,15/11/2020,15/11/2020
,MZ-Custom,HR-EMP-00050,Manzo,16/11/2020,16/11/2020
,MZ-Custom,HR-EMP-00050,Manzo,17/11/2020,17/11/2020
,MZ-Custom,HR-EMP-00050,Manzo,19/11/2020,19/11/2020
,MZ-Custom,HR-EMP-00050,Manzo,20/11/2020,20/11/2020
,MZ-Custom,HR-EMP-00050,Manzo,21/11/2020,21/11/2020
,MZ-Night-shift,HR-EMP-00049,Manzo,15/11/2020,15/11/2021
,MZ-Custom,HR-EMP-00049,Manzo,17/11/2020,17/11/2021
,MZ-Custom,HR-EMP-00049,Manzo,18/11/2020,18/11/2021
