ID,Shift Type,Employee,Company,From Date,To Date
,MZ-Mid-shift,HR-EMP-00083,Manzo,13/12/2020,13/12/2020
,MZ-Mid-shift,HR-EMP-00083,Manzo,15/12/2020,15/12/2020
,MZ-Mid-shift,HR-EMP-00083,Manzo,16/12/2020,16/12/2020
,MZ-Mid-shift,HR-EMP-00083,Manzo,17/12/2020,17/12/2020
,MZ-Mid-shift,HR-EMP-00083,Manzo,18/12/2020,18/12/2020
,MZ-Mid-shift,HR-EMP-00083,Manzo,19/12/2020,19/12/2020
,MZ-Night-shift,HR-EMP-00022,Manzo,13/12/2020,13/12/2020
,MZ-Night-shift,HR-EMP-00022,Manzo,14/12/2020,14/12/2020
,MZ-Night-shift,HR-EMP-00022,Manzo,15/12/2020,15/12/2020
,MZ-Night-shift,HR-EMP-00022,Manzo,16/12/2020,16/12/2020
,MZ-Morning-shift,HR-EMP-00022,Manzo,17/12/2020,17/12/2020
,MZ-Night-shift,HR-EMP-00022,Manzo,18/12/2020,18/12/2020
,MZ-Morning-shift,HR-EMP-00062,Manzo,13/12/2020,13/12/2020
,MZ-Morning-shift,HR-EMP-00062,Manzo,14/12/2020,14/12/2020
,MZ-Morning-shift,HR-EMP-00062,Manzo,16/12/2020,16/12/2020
,MZ-Night-shift,HR-EMP-00062,Manzo,17/12/2020,17/12/2020
,MZ-Night-shift,HR-EMP-00062,Manzo,18/12/2020,18/12/2020
,MZ-Morning-shift,HR-EMP-00062,Manzo,19/12/2020,19/12/2020
,MZ-Night-shift,HR-EMP-00025,Manzo,13/12/2020,13/12/2020
,MZ-Night-shift,HR-EMP-00025,Manzo,14/12/2020,14/12/2020
,MZ-Night-shift,HR-EMP-00025,Manzo,15/12/2020,15/12/2020
,MZ-Night-shift,HR-EMP-00025,Manzo,16/12/2020,16/12/2020
,MZ-Night-shift,HR-EMP-00025,Manzo,17/12/2020,17/12/2020
,MZ-Night-shift,HR-EMP-00025,Manzo,18/12/2020,18/12/2020
,MZ-Night-shift,HR-EMP-00025,Manzo,19/12/2020,19/12/2020
,MZ-Night-shift,HR-EMP-00038,Manzo,13/12/2020,13/12/2020
,MZ-Night-shift,HR-EMP-00038,Manzo,14/12/2020,14/12/2020
,MZ-Night-shift,HR-EMP-00038,Manzo,15/12/2020,15/12/2020
,MZ-Night-shift,HR-EMP-00038,Manzo,17/12/2020,17/12/2020
,MZ-Night-shift,HR-EMP-00038,Manzo,18/12/2020,18/12/2020
,MZ-Night-shift,HR-EMP-00038,Manzo,19/12/2020,19/12/2020
,MZ-Mid-shift,HR-EMP-00093,Manzo,14/12/2020,14/12/2020
,MZ-Morning-shift,HR-EMP-00093,Manzo,15/12/2020,15/12/2020
,MZ-Night-shift,HR-EMP-00093,Manzo,16/12/2020,16/12/2020
,MZ-Morning-shift,HR-EMP-00093,Manzo,17/12/2020,17/12/2020
,MZ-Morning-shift,HR-EMP-00093,Manzo,18/12/2020,18/12/2020
,MZ-Morning-shift,HR-EMP-00046,Manzo,13/12/2020,13/12/2020
,MZ-Morning-shift,HR-EMP-00046,Manzo,14/12/2020,15/12/2020
,MZ-Morning-shift,HR-EMP-00046,Manzo,15/12/2020,16/12/2020
,MZ-Morning-shift,HR-EMP-00046,Manzo,16/12/2020,17/12/2020
,MZ-Morning-shift,HR-EMP-00046,Manzo,18/12/2020,18/12/2020
,MZ-Morning-shift,HR-EMP-00046,Manzo,19/12/2020,19/12/2020
,MZ-Mid-shift,HR-EMP-00028,Manzo,13/12/2020,13/12/2020
,MZ-Mid-shift,HR-EMP-00028,Manzo,14/12/2020,14/12/2020
,MZ-Mid-shift,HR-EMP-00028,Manzo,15/12/2020,15/12/2020
,MZ-Mid-shift,HR-EMP-00028,Manzo,16/12/2020,16/12/2020
,MZ-Mid-shift,HR-EMP-00028,Manzo,19/12/2020,19/12/2020
,MZ-Night-shift,HR-EMP-00013,Manzo,13/12/2020,13/12/2020
,MZ-Night-shift,HR-EMP-00013,Manzo,14/12/2020,14/12/2020
,MZ-Night-shift,HR-EMP-00013,Manzo,17/12/2020,17/12/2020
,MZ-Night-shift,HR-EMP-00013,Manzo,18/12/2020,18/12/2020
,MZ-Night-shift,HR-EMP-00013,Manzo,19/12/2020,19/12/2020
,MZ-Custom,HR-EMP-00026,Manzo,13/12/2020,13/12/2020
,MZ-Custom,HR-EMP-00026,Manzo,14/12/2020,14/12/2020
,MZ-Custom,HR-EMP-00026,Manzo,15/12/2020,15/12/2020
,MZ-Custom,HR-EMP-00026,Manzo,16/12/2020,16/12/2020
,MZ-Custom,HR-EMP-00026,Manzo,17/12/2020,17/12/2020
,MZ-Mid-shift,HR-EMP-00026,Manzo,18/12/2020,18/12/2020
,MZ-Night-shift,HR-EMP-00034,Manzo,15/12/2020,15/12/2020
,MZ-Night-shift,HR-EMP-00034,Manzo,16/12/2020,16/12/2020
,MZ-Night-shift,HR-EMP-00034,Manzo,17/12/2020,17/12/2020
,MZ-Custom,HR-EMP-00034,Manzo,18/12/2020,18/12/2020
,MZ-Custom,HR-EMP-00034,Manzo,19/12/2020,19/12/2020
