ID,Shift Type,Employee,Company,To Date,From Date
,MD-Night,HR-EMP-00059,Mood,30-10-2020,25-10-2020
,MD-Night,HR-EMP-00059,Mood,6/11/2020,1/11/2020
,MD-Night,HR-EMP-00059,Mood,8/11/2020,8/11/2020
,MD-Custom,HR-EMP-00059,Mood,13-11-2020,9/11/2020
,MD-Night,HR-EMP-00070,Mood,30-10-2020,26-10-2020
,MD-Custom,HR-EMP-00070,Mood,31-10-2020,31-10-2020
,MD-Night,HR-EMP-00070,Mood,2/11/2020,2/11/2020
,MD-Custom,HR-EMP-00070,Mood,3/11/2020,3/11/2020
,MD-Custom,HR-EMP-00070,Mood,6/11/2020,5/11/2020
,MD-Night,HR-EMP-00070,Mood,7/11/2020,7/11/2020
,MD-Night,HR-EMP-00070,Mood,10/11/2020,9/11/2020
,MD-Night,HR-EMP-00070,Mood,13-11-2020,12/11/2020
,MD-Night,HR-EMP-00078,Mood,25-10-2020,25-10-2020
,MD-Mid,HR-EMP-00078,Mood,28-10-2020,28-10-2020
,MD-Night,HR-EMP-00078,Mood,31-10-2020,29-10-2020
,MD-Night,HR-EMP-00078,Mood,6/11/2020,3/11/2020
,MD-Morning,HR-EMP-00073,Mood,27-10-2020,25-10-2020
,MD-Morning,HR-EMP-00073,Mood,4/11/2020,30-10-2020
,MD-Morning,HR-EMP-00073,Mood,11/11/2020,6/11/2020
,MD-Morning,HR-EMP-00073,Mood,14-11-2020,13-11-2020
,MD-Morning,HR-EMP-00052,Mood,26-10-2020,25-10-2020
,MD-Morning,HR-EMP-00052,Mood,2/11/2020,29-10-2020
,MD-Morning,HR-EMP-00052,Mood,9/11/2020,4/11/2020
,MD-Custom,HR-EMP-00052,Mood,11/11/2020,11/11/2020
,MD-Night,HR-EMP-00052,Mood,14-11-2020,12/11/2020
,MD-Night,HR-EMP-00068,Mood,25-10-2020,25-10-2020
,MD-Morning,HR-EMP-00068,Mood,28-10-2020,27-10-2020
,MD-Night,HR-EMP-00068,Mood,1/11/2020,30-10-2020
,MD-Morning,HR-EMP-00068,Mood,3/11/2020,3/11/2020
,MD-Night,HR-EMP-00068,Mood,7/11/2020,4/11/2020
,MD-Morning,HR-EMP-00068,Mood,14-11-2020,10/11/2020
,MD-Night,HR-EMP-00064,Mood,28-10-2020,26-10-2020
,MD-Custom,HR-EMP-00064,Mood,29-10-2020,29-10-2020
,MD-Night,HR-EMP-00064,Mood,3/11/2020,31-10-2020
,MD-Custom,HR-EMP-00064,Mood,5/11/2020,4/11/2020
,MD-Night,HR-EMP-00064,Mood,12/11/2020,7/11/2020
,MD-Night,HR-EMP-00064,Mood,14-11-2020,14-11-2020
,MD-Custom,HR-EMP-00061,Mood,1/11/2020,27-10-2020
,MD-Custom,HR-EMP-00061,Mood,6/11/2020,3/11/2020
,MD-Custom,HR-EMP-00061,Mood,12/11/2020,10/11/2020
,MD-Morning,HR-EMP-00061,Mood,13-11-2020,13-11-2020
,MD-Custom,HR-EMP-00061,Mood,14-11-2020,14-11-2020
,MD-Night,HR-EMP-00056,Mood,27-10-2020,25-10-2020
,MD-Night,HR-EMP-00056,Mood,31-10-2020,29-10-2020
,MD-Morning,HR-EMP-00056,Mood,2/11/2020,2/11/2020
,MD-Night,HR-EMP-00056,Mood,2/11/2020,2/11/2020
,MD-Custom,HR-EMP-00056,Mood,6/11/2020,6/11/2020
,MD-Night,HR-EMP-00056,Mood,7/11/2020,7/11/2020
,MD-Morning,HR-EMP-00056,Mood,9/11/2020,8/11/2020
,MD-Night,HR-EMP-00056,Mood,11/11/2020,10/11/2020
,MD-Morning,HR-EMP-00056,Mood,14-11-2020,14-11-2020
,MD-Night,HR-EMP-00067,Mood,28-10-2020,25-10-2020
,MD-Night,HR-EMP-00067,Mood,2/11/2020,1/11/2020
,MD-Night,HR-EMP-00067,Mood,9/11/2020,5/11/2020
,MD-Night,HR-EMP-00067,Mood,14-11-2020,11/11/2020
,MD-Morning,HR-EMP-00008,Mood,25-10-2020,25-10-2020
,MD-Custom,HR-EMP-00008,Mood,26-10-2020,26-10-2020
,MD-Custom,HR-EMP-00008,Mood,5/11/2020,28-10-2020
,MD-Custom,HR-EMP-00008,Mood,10/11/2020,7/11/2020
,MD-Custom,HR-EMP-00008,Mood,14-11-2020,12/11/2020
,MD-Custom,HR-EMP-00072,Mood,25-10-2020,25-10-2020
,MD-Morning,HR-EMP-00072,Mood,29-10-2020,26-10-2020
,MD-Morning,HR-EMP-00072,Mood,1/11/2020,31-10-2020
,MD-Custom,HR-EMP-00072,Mood,2/11/2020,2/11/2020
,MD-Morning,HR-EMP-00072,Mood,3/11/2020,3/11/2020
,MD-Custom,HR-EMP-00072,Mood,5/11/2020,4/11/2020
,MD-Morning,HR-EMP-00072,Mood,12/11/2020,7/11/2020
,MD-Custom,HR-EMP-00060,Mood,26-10-2020,25-10-2020
,MD-Custom,HR-EMP-00060,Mood,29-10-2020,28-10-2020
,MD-Night,HR-EMP-00060,Mood,31-10-2020,30-10-2020
,MD-Night,HR-EMP-00060,Mood,3/11/2020,3/11/2020
,MD-Custom,HR-EMP-00060,Mood,5/11/2020,4/11/2020
,MD-Night,HR-EMP-00060,Mood,8/11/2020,6/11/2020
,MD-Custom,HR-EMP-00060,Mood,6/11/2020,6/11/2020
,MD-Custom,HR-EMP-00060,Mood,12/11/2020,11/11/2020
,MD-Night,HR-EMP-00060,Mood,14-11-2020,13-11-2020
,MD-Custom,HR-EMP-00094,Mood,27-10-2020,25-10-2020
,MD-Morning,HR-EMP-00094,Mood,29-10-2020,28-10-2020
,MD-Custom,HR-EMP-00094,Mood,3/11/2020,1/11/2020
,MD-Morning,HR-EMP-00094,Mood,5/11/2020,5/11/2020
,MD-Custom,HR-EMP-00094,Mood,10/11/2020,6/11/2020
,MD-Custom,HR-EMP-00094,Mood,14-11-2020,12/11/2020
