ID,Shift Type,Employee,Company,From Date,To Date
,MD-Morning,HR-EMP-00070,Mood,1/3/2021,1/3/2021
,MD-Morning,HR-EMP-00070,Mood,1/3/2021,1/5/2021
,MD-Morning,HR-EMP-00070,Mood,1/6/2021,1/6/2021
,MD-Morning,HR-EMP-00070,Mood,1/7/2021,1/7/2021
,MD-Morning,HR-EMP-00070,Mood,1/9/2021,1/9/2021
,MD-Night,HR-EMP-00107,Mood,1/3/2021,1/3/2021
,MD-Night,HR-EMP-00107,Mood,1/5/2021,1/5/2021
,MD-Night,HR-EMP-00107,Mood,1/6/2021,1/6/2021
,MD-Night,HR-EMP-00107,Mood,1/7/2021,1/7/2021
,MD-Night,HR-EMP-00107,Mood,1/9/2021,1/9/2021
,MD-Custom,HR-EMP-00055,Mood,1/5/2021,1/5/2021
,MD-Morning,HR-EMP-00055,Mood,1/6/2021,1/6/2021
,MD-Custom,HR-EMP-00055,Mood,1/7/2021,1/7/2021
,MD-Custom,HR-EMP-00055,Mood,1/8/2021,1/8/2021
,MD-Custom,HR-EMP-00055,Mood,1/9/2021,1/9/2021
,MD-Morning,HR-EMP-00111,Mood,1/3/2021,1/3/2021
,MD-Morning,HR-EMP-00111,Mood,1/4/2021,1/4/2021
,MD-Morning,HR-EMP-00111,Mood,1/5/2021,1/5/2021
,MD-Morning,HR-EMP-00111,Mood,1/6/2021,1/6/2021
,MD-Morning,HR-EMP-00111,Mood,1/7/2021,1/7/2021
,MD-Morning,HR-EMP-00111,Mood,1/9/2021,1/9/2021
,MD-Night,HR-EMP-00110,Mood,1/3/2021,1/3/2021
,MD-Night,HR-EMP-00110,Mood,1/4/2021,1/4/2021
,MD-Night,HR-EMP-00110,Mood,1/5/2021,1/5/2021
,MD-Night,HR-EMP-00110,Mood,1/6/2021,1/6/2021
,MD-Night,HR-EMP-00110,Mood,1/8/2021,1/8/2021
,MD-Night,HR-EMP-00110,Mood,1/9/2021,1/9/2021
,MD-Custom,HR-EMP-00061,Mood,1/4/2021,1/4/2021
,MD-Night,HR-EMP-00061,Mood,1/5/2021,1/5/2021
,MD-Night,HR-EMP-00061,Mood,1/6/2021,1/6/2021
,MD-Night,HR-EMP-00061,Mood,1/7/2021,1/7/2021
,MD-Morning,HR-EMP-00061,Mood,1/8/2021,1/8/2021
,MD-Morning,HR-EMP-00061,Mood,1/9/2021,1/9/2021
,MD-Night,HR-EMP-00067,Mood,1/3/2021,1/3/2021
,MD-Night,HR-EMP-00067,Mood,1/4/2021,1/4/2021
,MD-Night,HR-EMP-00067,Mood,1/5/2021,1/5/2021
,MD-Night,HR-EMP-00008,Mood,1/3/2021,1/3/2021
,MD-Night,HR-EMP-00008,Mood,1/4/2021,1/4/2021
,MD-Night,HR-EMP-00008,Mood,1/6/2021,1/6/2021
,MD-Night,HR-EMP-00008,Mood,1/7/2021,1/7/2021
,MD-Custom,HR-EMP-00008,Mood,1/8/2021,1/8/2021
,MD-Night,HR-EMP-00008,Mood,1/3/2021,1/9/2021
,MD-Morning,HR-EMP-00072,Mood,1/4/2021,1/4/2021
,MD-Morning,HR-EMP-00072,Mood,1/5/2021,1/5/2021
,MD-Morning,HR-EMP-00072,Mood,1/6/2021,1/6/2021
,MD-Morning,HR-EMP-00072,Mood,1/7/2021,1/7/2021
,MD-Morning,HR-EMP-00072,Mood,1/9/2021,1/9/2021
,MD-Night,HR-EMP-00112,Mood,1/3/2021,1/3/2021
,MD-Night,HR-EMP-00112,Mood,1/5/2021,1/5/2021
,MD-Night,HR-EMP-00112,Mood,1/6/2021,1/6/2021
,MD-Night,HR-EMP-00112,Mood,1/7/2021,1/7/2021
,MD-Night,HR-EMP-00112,Mood,1/8/2021,1/8/2021
,MD-Night,HR-EMP-00112,Mood,1/9/2021,1/9/2021
,MD-Night,HR-EMP-00072,Mood,1/3/2021,1/3/2021
,MD-Custom,HR-EMP-00060,Mood,1/4/2021,1/4/2021
,MD-Night,HR-EMP-00060,Mood,1/5/2021,1/5/2021
,MD-NIGHT,HR-EMP-00060,Mood,1/6/2021,1/6/2021
,MD-NIGHT,HR-EMP-00060,Mood,1/7/2021,1/7/2021
,MD-Night,HR-EMP-00060,Mood,1/9/2021,1/9/2021
,MD-Morning,HR-EMP-00094,Mood,1/3/2021,1/3/2021
,MD-Night,HR-EMP-00094,Mood,1/4/2021,1/4/2021
,MD-Custom,HR-EMP-00094,Mood,1/7/2021,1/7/2021
,MD-Night,HR-EMP-00094,Mood,1/8/2021,1/8/2021
,MD-Night,HR-EMP-00094,Mood,1/9/2021,1/9/2021
