ID,Shift Type,Employee,Company,From Date,To Date
,MZ-Mid-shift,HR-EMP-00083,Manzo,4/1/2021,4/1/2021
,MZ-Mid-shift,HR-EMP-00083,Manzo,5/1/2021,5/1/2021
,MZ-Night-shift,HR-EMP-00083,Manzo,6/1/2021,6/1/2021
,MZ-Mid-shift,HR-EMP-00083,Manzo,7/1/2021,7/1/2021
,MZ-Mid-shift,HR-EMP-00083,Manzo,8/1/2021,8/1/2021
,MZ-Mid-shift,HR-EMP-00083,Manzo,9/1/2021,9/1/2021
,MZ-Night-shift,HR-EMP-00022,Manzo,3/1/2021,3/1/2021
,MZ-Night-shift,HR-EMP-00022,Manzo,4/1/2021,4/1/2021
,MZ-Night-shift,HR-EMP-00022,Manzo,5/1/2021,5/1/2021
,MZ-Night-shift,HR-EMP-00022,Manzo,6/1/2021,6/1/2021
,MZ-Morning-shift,HR-EMP-00022,Manzo,7/1/2021,7/1/2021
,MZ-Night-shift,HR-EMP-00022,Manzo,9/1/2021,9/1/2021
,MZ-Morning-shift,HR-EMP-00062,Manzo,3/1/2021,3/1/2021
,MZ-Morning-shift,HR-EMP-00062,Manzo,4/1/2021,4/1/2021
,MZ-Morning-shift,HR-EMP-00062,Manzo,6/1/2021,6/1/2021
,MZ-Night-shift,HR-EMP-00062,Manzo,7/1/2021,7/1/2021
,MZ-Night-shift,HR-EMP-00062,Manzo,8/1/2021,8/1/2021
,MZ-Morning-shift,HR-EMP-00062,Manzo,9/1/2021,9/1/2021
,MZ-Night-shift,HR-EMP-00025,Manzo,3/1/2021,3/1/2021
,MZ-Night-shift,HR-EMP-00025,Manzo,5/1/2021,5/1/2021
,MZ-Night-shift,HR-EMP-00025,Manzo,6/1/2021,6/1/2021
,MZ-Night-shift,HR-EMP-00025,Manzo,7/1/2021,7/1/2021
,MZ-Night-shift,HR-EMP-00025,Manzo,8/1/2021,8/1/2021
,MZ-Night-shift,HR-EMP-00025,Manzo,9/1/2021,9/1/2021
,MZ-Night-shift,HR-EMP-00038,Manzo,3/1/2021,3/1/2021
,MZ-Night-shift,HR-EMP-00038,Manzo,4/1/2021,4/1/2021
,MZ-Night-shift,HR-EMP-00038,Manzo,5/1/2021,5/1/2021
,MZ-Night-shift,HR-EMP-00038,Manzo,7/1/2021,7/1/2021
,MZ-Night-shift,HR-EMP-00038,Manzo,8/1/2021,8/1/2021
,MZ-Night-shift,HR-EMP-00038,Manzo,9/1/2021,9/1/2021
,MZ-Mid-shift,HR-EMP-00093,Manzo,3/1/2021,3/1/2021
,MZ-Night-shift,HR-EMP-00093,Manzo,4/1/2021,4/1/2021
,MZ-Morning-shift,HR-EMP-00093,Manzo,5/1/2021,5/1/2021
,MZ-Night-shift,HR-EMP-00093,Manzo,6/1/2021,6/1/2021
,MZ-Morning-shift,HR-EMP-00093,Manzo,7/1/2021,7/1/2021
,MZ-Morning-shift,HR-EMP-00093,Manzo,8/1/2021,8/1/2021
,MZ-Morning-shift,HR-EMP-00046,Manzo,3/1/2021,3/1/2021
,MZ-Morning-shift,HR-EMP-00046,Manzo,4/1/2021,4/1/2021
,MZ-Morning-shift,HR-EMP-00046,Manzo,5/1/2021,5/1/2021
,MZ-Morning-shift,HR-EMP-00046,Manzo,6/1/2021,6/1/2021
,MZ-Morning-shift,HR-EMP-00046,Manzo,8/1/2021,8/1/2021
,MZ-Morning-shift,HR-EMP-00046,Manzo,9/1/2021,9/1/2021
,MZ-Night-shift,HR-EMP-00013,Manzo,3/1/2021,3/1/2021
,MZ-Night-shift,HR-EMP-00013,Manzo,4/1/2021,4/1/2021
,MZ-Night-shift,HR-EMP-00013,Manzo,5/1/2021,5/1/2021
,MZ-Night-shift,HR-EMP-00013,Manzo,6/1/2021,6/1/2021
,MZ-Custom,HR-EMP-00013,Manzo,8/1/2021,7/1/2021
,MZ-Night-shift,HR-EMP-00013,Manzo,9/1/2021,8/1/2021
,MZ-Mid-shift,HR-EMP-00026,Manzo,3/1/2021,3/1/2021
,MZ-Mid-shift,HR-EMP-00026,Manzo,4/1/2021,4/1/2021
,MZ-Mid-shift,HR-EMP-00026,Manzo,5/1/2021,5/1/2021
,MZ-Night-shift,HR-EMP-00026,Manzo,7/1/2021,8/1/2021
,MZ-Night-shift,HR-EMP-00026,Manzo,8/1/2021,9/1/2021
,MZ-Custom,HR-EMP-00034,Manzo,3/1/2021,3/1/2021
,MZ-Custom,HR-EMP-00034,Manzo,4/1/2021,4/1/2021
,MZ-Custom,HR-EMP-00034,Manzo,5/1/2021,5/1/2021
,MZ-Custom,HR-EMP-00034,Manzo,6/1/2021,6/1/2021
,MZ-Custom,HR-EMP-00034,Manzo,7/1/2021,7/1/2021
,MZ-Custom,HR-EMP-00034,Manzo,9/1/2021,9/1/2021
,MZ-Mid-shift,HR-EMP-00028,Manzo,6/1/2021,6/1/2021
,MZ-Mid-shift,HR-EMP-00028,Manzo,7/1/2021,7/1/2021
,MZ-Mid-shift,HR-EMP-00028,Manzo,8/1/2021,8/1/2021
,MZ-Mid-shift,HR-EMP-00028,Manzo,9/1/2021,9/1/2021
