ID,Shift Type,Employee,Company,From Date,To Date
,MZ-Mid-shift,HR-EMP-00083,Manzo,27/12/2020,27/12/2020
,MZ-Mid-shift,HR-EMP-00083,Manzo,29/12/2020,29/12/2020
,MZ-Night-shift,HR-EMP-00083,Manzo,30/12/2020,30/12/2020
,MZ-Mid-shift,HR-EMP-00083,Manzo,31/12/2020,31/12/2020
,MZ-Mid-shift,HR-EMP-00083,Manzo,1/1/2021,1/1/2021
,MZ-Morning-shift,HR-EMP-00083,Manzo,2/1/2021,2/1/2021
,MZ-Night-shift,HR-EMP-00022,Manzo,27/12/2020,27/12/2020
,MZ-Night-shift,HR-EMP-00022,Manzo,28/12/2020,28/12/2020
,MZ-Night-shift,HR-EMP-00022,Manzo,29/12/2020,29/12/2020
,MZ-Morning-shift,HR-EMP-00022,Manzo,30/12/2020,30/12/2020
,MZ-Night-shift,HR-EMP-00022,Manzo,31/12/2020,31/12/2020
,MZ-Night-shift,HR-EMP-00022,Manzo,2/1/2021,2/1/2021
,MZ-Morning-shift,HR-EMP-00062,Manzo,27/12/2020,27/12/2020
,MZ-Morning-shift,HR-EMP-00062,Manzo,28/12/2020,28/12/2020
,MZ-Night-shift,HR-EMP-00062,Manzo,30/12/2020,30/12/2020
,MZ-Morning-shift,HR-EMP-00062,Manzo,31/12/2020,31/12/2020
,MZ-Night-shift,HR-EMP-00062,Manzo,1/1/2021,1/1/2021
,MZ-Mid-shift,HR-EMP-00062,Manzo,2/1/2021,2/1/2021
,MZ-Night-shift,HR-EMP-00025,Manzo,28/12/2020,28/12/2020
,MZ-Night-shift,HR-EMP-00025,Manzo,29/12/2020,29/12/2020
,MZ-Night-shift,HR-EMP-00025,Manzo,30/12/2020,30/12/2020
,MZ-Night-shift,HR-EMP-00025,Manzo,31/12/2020,31/12/2020
,MZ-Night-shift,HR-EMP-00025,Manzo,1/1/2021,1/1/2021
,MZ-Night-shift,HR-EMP-00025,Manzo,2/1/2021,2/1/2021
,MZ-Night-shift,HR-EMP-00038,Manzo,27/12/2020,27/12/2020
,MZ-Night-shift,HR-EMP-00038,Manzo,28/12/2020,28/12/2020
,MZ-Night-shift,HR-EMP-00038,Manzo,29/12/2020,29/12/2020
,MZ-Night-shift,HR-EMP-00038,Manzo,31/12/2020,31/12/2020
,MZ-Night-shift,HR-EMP-00038,Manzo,1/1/2021,1/1/2021
,MZ-Night-shift,HR-EMP-00038,Manzo,2/1/2021,2/1/2021
,MZ-Night-shift,HR-EMP-00093,Manzo,27/12/2020,27/12/2020
,MZ-Mid-shift,HR-EMP-00093,Manzo,28/12/2020,28/12/2020
,MZ-Morning-shift,HR-EMP-00093,Manzo,29/12/2020,29/12/2020
,MZ-Night-shift,HR-EMP-00093,Manzo,30/12/2020,31/12/2020
,MZ-Morning-shift,HR-EMP-00093,Manzo,1/1/2021,1/1/2021
,MZ-Morning-shift,HR-EMP-00093,Manzo,2/1/2021,2/1/2021
,MZ-Morning-shift,HR-EMP-00046,Manzo,27/12/2020,27/12/2020
,MZ-Morning-shift,HR-EMP-00046,Manzo,28/12/2020,28/12/2020
,MZ-Morning-shift,HR-EMP-00046,Manzo,29/12/2020,29/12/2020
,MZ-Morning-shift,HR-EMP-00046,Manzo,30/12/2020,31/12/2020
,MZ-Morning-shift,HR-EMP-00046,Manzo,31/12/2020,31/12/2020
,MZ-Morning-shift,HR-EMP-00046,Manzo,1/1/2021,1/1/2021
,MZ-Night-shift,HR-EMP-00013,Manzo,27/12/2020,27/12/2020
,MZ-Night-shift,HR-EMP-00013,Manzo,28/12/2020,28/12/2020
,MZ-Night-shift,HR-EMP-00013,Manzo,29/12/2020,29/12/2020
,MZ-Night-shift,HR-EMP-00013,Manzo,30/12/2020,31/12/2020
,MZ-Custom,HR-EMP-00013,Manzo,1/1/2021,1/1/2021
,MZ-Night-shift,HR-EMP-00013,Manzo,2/1/2021,2/1/2021
,MZ-Custom,HR-EMP-00026,Manzo,27/12/2020,27/12/2020
,MZ-Custom,HR-EMP-00026,Manzo,28/12/2020,28/12/2020
,MZ-Custom,HR-EMP-00026,Manzo,29/12/2020,29/12/2020
,MZ-Custom,HR-EMP-00026,Manzo,30/12/2020,30/12/2020
,MZ-Custom,HR-EMP-00026,Manzo,31/12/2020,31/12/2020
,MZ-Mid-shift,HR-EMP-00026,Manzo,1/1/2021,1/1/2021
,MZ-Mid-shift,HR-EMP-00034,Manzo,27/12/2020,27/12/2020
,MZ-Mid-shift,HR-EMP-00034,Manzo,28/12/2020,28/12/2020
,MZ-Mid-shift,HR-EMP-00034,Manzo,29/12/2020,29/12/2020
,MZ-Mid-shift,HR-EMP-00034,Manzo,30/12/2020,30/12/2020
,MZ-Mid-shift,HR-EMP-00034,Manzo,31/12/2020,31/12/2020
,MZ-Custom,HR-EMP-00034,Manzo,2/1/2021,2/1/2021
