ID,Shift Type,Employee,Company,From Date,To Date
,BO-Day,HR-EMP-00005,AAR Enterprises,25/10/2020,28/10/2020
,BO-Day,HR-EMP-00005,AAR Enterprises,31/10/2020,05/11/2020
,BO-Day,HR-EMP-00005,AAR Enterprises,07/11/2020,12/11/2020
,BO-Day,HR-EMP-00005,AAR Enterprises,14/11/2020,19/11/2020
,BO-Day,HR-EMP-00005,AAR Enterprises,21/11/2020,26/11/2020
,BO-Day,HR-EMP-00005,AAR Enterprises,28/11/2020,03/12/2020
,BO-Day,HR-EMP-00003,AAR Enterprises,25/10/2020,28/10/2020
,BO-Day,HR-EMP-00003,AAR Enterprises,31/10/2020,05/11/2020
,BO-Day,HR-EMP-00003,AAR Enterprises,07/11/2020,12/11/2020
,BO-Day,HR-EMP-00003,AAR Enterprises,14/11/2020,19/11/2020
,BO-Day,HR-EMP-00003,AAR Enterprises,21/11/2020,26/11/2020
,BO-Day,HR-EMP-00003,AAR Enterprises,28/11/2020,03/12/2020
,BO-Day,HR-EMP-00016,Maintenance Co 247,25/10/2020,28/10/2020
,BO-Day,HR-EMP-00016,Maintenance Co 247,31/10/2020,05/11/2020
,BO-Day,HR-EMP-00016,Maintenance Co 247,07/11/2020,12/11/2020
,BO-Day,HR-EMP-00016,Maintenance Co 247,14/11/2020,19/11/2020
,BO-Day,HR-EMP-00016,Maintenance Co 247,21/11/2020,26/11/2020
,BO-Day,HR-EMP-00016,Maintenance Co 247,28/11/2020,03/12/2020
,BO-Day,HR-EMP-00084,AAR Enterprises,25/10/2020,28/10/2020
,BO-Day,HR-EMP-00084,AAR Enterprises,31/10/2020,05/11/2020
,BO-Day,HR-EMP-00084,AAR Enterprises,07/11/2020,12/11/2020
,BO-Day,HR-EMP-00084,AAR Enterprises,14/11/2020,19/11/2020
,BO-Day,HR-EMP-00084,AAR Enterprises,21/11/2020,26/11/2020
,BO-Day,HR-EMP-00084,AAR Enterprises,28/11/2020,03/12/2020
,BO-Day,HR-EMP-00089,AAR Enterprises,25/10/2020,28/10/2020
,BO-Day,HR-EMP-00089,AAR Enterprises,31/10/2020,05/11/2020
,BO-Day,HR-EMP-00089,AAR Enterprises,07/11/2020,12/11/2020
,BO-Day,HR-EMP-00089,AAR Enterprises,14/11/2020,19/11/2020
,BO-Day,HR-EMP-00089,AAR Enterprises,21/11/2020,26/11/2020
,BO-Day,HR-EMP-00089,AAR Enterprises,28/11/2020,03/12/2020
,BO-Day,HR-EMP-00085,AAR Enterprises,25/10/2020,28/10/2020
,BO-Day,HR-EMP-00085,AAR Enterprises,31/10/2020,05/11/2020
,BO-Day,HR-EMP-00085,AAR Enterprises,07/11/2020,12/11/2020
,BO-Day,HR-EMP-00085,AAR Enterprises,14/11/2020,19/11/2020
,BO-Day,HR-EMP-00085,AAR Enterprises,21/11/2020,26/11/2020
,BO-Day,HR-EMP-00085,AAR Enterprises,28/11/2020,03/12/2020
,BO-Day,HR-EMP-00007,AAR Enterprises,25/10/2020,28/10/2020
,BO-Day,HR-EMP-00007,AAR Enterprises,31/10/2020,05/11/2020
,BO-Day,HR-EMP-00007,AAR Enterprises,07/11/2020,12/11/2020
,BO-Day,HR-EMP-00007,AAR Enterprises,14/11/2020,19/11/2020
,BO-Day,HR-EMP-00007,AAR Enterprises,21/11/2020,26/11/2020
,BO-Day,HR-EMP-00007,AAR Enterprises,28/11/2020,03/12/2020
,BO-Day,HR-EMP-00086,AAR Enterprises,25/10/2020,28/10/2020
,BO-Day,HR-EMP-00086,AAR Enterprises,31/10/2020,05/11/2020
,BO-Day,HR-EMP-00086,AAR Enterprises,07/11/2020,12/11/2020
,BO-Day,HR-EMP-00086,AAR Enterprises,14/11/2020,19/11/2020
,BO-Day,HR-EMP-00086,AAR Enterprises,21/11/2020,26/11/2020
,BO-Day,HR-EMP-00086,AAR Enterprises,28/11/2020,03/12/2020
,BO-Day,HR-EMP-00002,AAR Enterprises,25/10/2020,28/10/2020
,BO-Day,HR-EMP-00002,AAR Enterprises,31/10/2020,05/11/2020
,BO-Day,HR-EMP-00002,AAR Enterprises,07/11/2020,12/11/2020
,BO-Day,HR-EMP-00002,AAR Enterprises,14/11/2020,19/11/2020
,BO-Day,HR-EMP-00002,AAR Enterprises,21/11/2020,26/11/2020
,BO-Day,HR-EMP-00002,AAR Enterprises,28/11/2020,03/12/2020
