ID,Shift Type,Employee,Company,From Date,To Date
,MD-Morning,HR-EMP-00057,Mood ,26/10/2020,31/10/2020
,MD-Morning,HR-EMP-00057,Mood ,2/11/2020,7/11/2020
,MD-Morning,HR-EMP-00057,Mood ,9/11/2020,14/11/2020
,MD-Morning,HR-EMP-00063,Mood ,24/10/2020,30/10/2020
,"MD-Night
",HR-EMP-00063,Mood ,1/11/2020,3/11/2020
,"MD-Night
",HR-EMP-00063,Mood ,5/11/2020,6/11/2020
,"MD-Night
",HR-EMP-00063,Mood ,8/11/2020,13/11/2020
,"MD-Night
",HR-EMP-00077,Mood ,25/10/2020,25/10/2020
,"MD-Night
",HR-EMP-00077,Mood ,27/10/2020,31/10/2020
,MD-Morning,HR-EMP-00077,Mood ,1/11/2020,1/11/2020
,MD-Morning,HR-EMP-00077,Mood ,3/11/2020,3/11/2020
,MD-Morning,HR-EMP-00077,Mood ,1/11/2020,1/11/2020
,"MD-Night
",HR-EMP-00077,Mood ,4/11/2020,4/11/2020
,MD-Morning,HR-EMP-00077,Mood ,3/11/2020,3/11/2020
,MD-Morning,HR-EMP-00077,Mood ,5/11/2020,8/11/2020
,MD-Morning,HR-EMP-00077,Mood ,10/11/2020,14/11/2020
,"MD-Night
",HR-EMP-00071,Mood ,25/10/2020,26/10/2020
,"MD-Night
",HR-EMP-00071,Mood ,28/10/2020,28/10/2020
,"MD-3rd
",HR-EMP-00071,Mood ,29/10/2020,30/10/2020
,MD-Morning,HR-EMP-00071,Mood ,31/10/2020,2/11/2020
,"MD-Night
",HR-EMP-00071,Mood ,4/11/2020,5/11/2020
,MD-Morning,HR-EMP-00071,Mood ,6/11/2020,8/11/2020
,"MD-Night
",HR-EMP-00071,Mood ,11/11/2020,11/11/2020
,"MD-3rd
",HR-EMP-00071,Mood ,12/11/2020,13/11/2020
,"MD-Night
",HR-EMP-00071,Mood ,14/11/2020,14/11/2020
,MD-Custom,HR-EMP-00074,Mood ,25/10/2020,25/10/2020
,"MD-Mid
",HR-EMP-00074,Mood ,27/10/2020,31/10/2020
,MD-Custom,HR-EMP-00074,Mood ,1/11/2020,1/11/2020
,MD-Custom,HR-EMP-00074,Mood ,3/11/2020,3/11/2020
,"MD-Mid
",HR-EMP-00074,Mood ,4/11/2020,7/11/2020
,MD-Custom,HR-EMP-00074,Mood ,8/11/2020,8/11/2020
,"MD-Mid
",HR-EMP-00074,Mood ,10/11/2020,10/11/2020
,"MD-Mid
",HR-EMP-00074,Mood ,12/11/2020,14/11/2020
,MD-Custom,HR-EMP-00098,Mood ,26/10/2020,26/10/2020
,"MD-Night
",HR-EMP-00098,Mood ,27/10/2020,31/10/2020
,"MD-Night
",HR-EMP-00098,Mood ,27/10/2020,1/11/2020
,MD-Custom,HR-EMP-00098,Mood ,2/11/2020,2/11/2020
,"MD-Night
",HR-EMP-00098,Mood ,4/11/2020,7/11/2020
,"MD-Night
",HR-EMP-00098,Mood ,9/11/2020,14/11/2020
,MD-Custom,HR-EMP-00058,Mood ,25/10/2020,26/10/2020
,MD-Custom,HR-EMP-00058,Mood ,4/11/2020,9/11/2020
,MD-Custom,HR-EMP-00058,Mood ,11/11/2020,14/11/2020
,MD-Custom,HR-EMP-00087,Mood ,25/10/2020,26/10/2020
,MD-Custom,HR-EMP-00087,Mood ,31/10/2020,5/11/2020
,MD-Custom,HR-EMP-00087,Mood ,7/11/2020,12/11/2020
,MD-Custom,HR-EMP-00087,Mood ,14/11/2020,14/11/2020
